2016-12-01 10:30:55.102:INFO::main: Logging initialized @781ms
2016-12-01 10:30:55.317:INFO:osjs.Server:main: jetty-9.2.15.v20160210
2016-12-01 10:30:55.376:INFO:osjsh.ContextHandler:main: Started o.s.j.s.ServletContextHandler@52bf72b5{/,null,AVAILABLE}
2016-12-01 10:30:55.470:INFO:osjs.ServerConnector:main: Started ServerConnector@448a0f35{HTTP/1.1}{0.0.0.0:4444}
2016-12-01 10:30:55.476:INFO:osjs.Server:main: Started @1155ms
2016-12-01 10:31:57.180:INFO::main: Logging initialized @900ms
2016-12-01 10:31:57.418:INFO:osjs.Server:main: jetty-9.2.15.v20160210
2016-12-01 10:31:57.487:INFO:osjsh.ContextHandler:main: Started o.s.j.s.ServletContextHandler@52bf72b5{/,null,AVAILABLE}
2016-12-01 10:31:57.548:INFO:osjs.ServerConnector:main: Started ServerConnector@448a0f35{HTTP/1.1}{0.0.0.0:4444}
2016-12-01 10:31:57.553:INFO:osjs.Server:main: Started @1273ms
nohup: ignoring input
2016-12-01 10:32:27.944:INFO::main: Logging initialized @881ms
2016-12-01 10:32:28.181:INFO:osjs.Server:main: jetty-9.2.15.v20160210
2016-12-01 10:35:02.518:INFO::main: Logging initialized @836ms
2016-12-01 10:35:02.764:INFO:osjs.Server:main: jetty-9.2.15.v20160210
2016-12-01 10:35:02.810:INFO:osjsh.ContextHandler:main: Started o.s.j.s.ServletContextHandler@52bf72b5{/,null,AVAILABLE}
2016-12-01 10:35:02.888:INFO:osjs.ServerConnector:main: Started ServerConnector@3d82f522{HTTP/1.1}{0.0.0.0:4444}
2016-12-01 10:35:02.894:INFO:osjs.Server:main: Started @1212ms
