{
    "title": "A propos",
    "content": [{
        "title": "Politique de protection de la vie privée et Conditions d’utilisation",
        "subtitle": "Introduction",
        "text": "Devant le développement des nouveaux outils de communication, il est nécessaire de porter une attention particulière à la protection de la vie privée. C'est pourquoi, nous nous engageons à respecter la confidentialité des renseignements personnels que nous collectons."
    }, {
        "title": "Collecte des renseignements personnels",
        "text": "Nous collectons les renseignements suivants :",
        "list": [
            "Nom",
            "Prénom",
            "Adresse postale",
            "Code postal",
            "Adresse électronique",
            "Numéro de téléphone / télécopieur",
            "Numéro de carte de crédit",
            "Âge / Date de naissance"
        ]
    }, {
        "text": "Les renseignements personnels que nous collectons sont recueillis au travers de formulaires et grâce à l'interactivité établie entre vous et notre site Web. Nous utilisons également, comme indiqué dans la section suivante, des fichiers témoins et/ou journaux pour réunir des informations vous concernant."
    }, {
        "title": "Formulaire et interactivité",
        "text": "Vos renseignements personnels sont collectés par le biais de formulaire, à savoir :",
        "list": [
            "Formulaire d'inscription au site Web",
            "Formulaire de commande",
            "Sondage d'opinion"
        ]
    }, {
        "text": "Nous utilisons les renseignements ainsi collectés pour les finalités suivantes :",
        "list": [
            "Suivi de la commande",
            "Informations / Offres promotionnelles",
            "Statistiques",
            "Contact",
            "Gestion du site Web (présentation, organisation)"
        ]
    }, {
        "text": "Vos renseignements sont également collectés par le biais de l'interactivité pouvant s'établir entre vous et notre site Web et ce, de la façon suivante:",
        "list": [
            "Statistiques",
            "Contact",
            "Gestion du site Web (présentation, organisation)"
        ]
    }, {
        "text": "Nous utilisons les renseignements ainsi collectés pour des finalités de correspondances."
    }, {
        "title": "Fichiers journaux et témoins",
        "text": "Nous recueillons certaines informations par le biais de fichiers journaux (log file) et de fichiers témoins (cookies). Il s'agit principalement des informations suivantes :",
        "list": [
            "Adresse IP",
            "Système d'exploitation",
            "Pages visitées et requêtes",
            "Heure et jour de connexion"
        ]
    }, {
        "text": "Le recours à de tels fichiers nous permet :",
        "list": [
            "Amélioration du service et accueil personnalisé",
            "Profil personnalisé de consommation",
            "Suivi de commande",
            "Statistique"
        ]
    }, {
        "title": "Droit d'opposition et de retrait",
        "text": "Nous nous engageons à vous offrir un droit d'opposition et de retrait quant à vos renseignements personnels.
Le droit d'opposition s'entend comme étant la possiblité offerte aux internautes de refuser que leurs renseignements personnels soient utilisées à certaines fins mentionnées lors de la collecte.
Le droit de retrait s'entend comme étant la possiblité offerte aux internautes de demander à ce que leurs renseignements personnels ne figurent plus, par exemple, dans une liste de diffusion."
    }, {
        "text": "Pour pouvoir exercer ces droits, vous pouvez nous contacter : ",
        "list": [
            "contact@sens.oragelac.com",
            "https://sens.oragelac.com/contact"
        ]
    }, {
        "title": "Droit d'accès",
        "text": "Nous nous engageons à reconnaître un droit d'accès et de rectification aux personnes concernées désireuses de consulter, modifier, voire radier les informations les concernant."
    }, {
        "title": "Sécurité",
        "text": "Les renseignements personnels que nous collectons sont conservés dans un environnement sécurisé. Les personnes travaillant pour nous sont tenues de respecter la confidentialité de vos informations.
Pour assurer la sécurité de vos renseignements personnels, nous avons recours aux mesures suivantes :",
        "list": [
            "Protocole SSL (Secure Sockets Layer)",
            "Protocole SET (Secure Electronic Transaction)",
            "Gestion des accès - personne autorisée",
            "Gestion des accès - personne concernée",
            "Logiciel de surveillance du réseau",
            "Sauvegarde informatique",
            "Développement de certificat numérique",
            "Identifiant / mot de passe",
            "Pare-feu (Firewalls)"
        ]
    }, {
        "text": "Nous nous engageons à maintenir un haut degré de confidentialité en intégrant les dernières innovations technologiques permettant d'assurer la confidentialité de vos transactions. Toutefois, comme aucun mécanisme n'offre une sécurité maximale, une part de risque est toujours présente lorsque l'on utilise Internet pour transmettre des renseignements personnels."
    }, {
        "title": "Législation",
        "text": "Nous nous engageons à respecter les dispositions législatives énoncées à l'adresse suivante :",
        "link": "http://www.belgium.be/fr/declaration_de_confidentialite"
    }]
}
